{
  "expense_groups": [
    {
      "id": 1,
      "name": "Bills",
      "description": "Monthly Bills for ...."
    },
    {
      "id": 2,
      "name": "gruop1",
      "description": "asdasasda"
    },
    {
      "id": 3,
      "name": "asdasd",
      "description": "asdadasd"
    }
  ],
  "income_groups": [
    {
      "id": 1,
      "name": "Paycheck",
      "description": "Monthly job paycheck"
    },
    {
      "id": 2,
      "name": "Side Job Income",
      "description": "Side job paycheck"
    }
  ],
  "expenses": [
    {
      "id": 6,
      "description": "asdsad",
      "amount": 2323,
      "group": "Bills",
      "date": "2021-04-08"
    }
  ],
  "incomes": [
    {
      "id": 1,
      "description": "sadsadsadads",
      "amount": 232323,
      "group": "",
      "date": "2021-04-08"
    }
  ]
}